yschin03.github.io - Data Story
…
3. Songs per year

# A tibble: 23 × 2
    year  song
   <dbl> <int>
 1  2012   113
 2  2017   110
 3  2001   106
 4  2018   104
 5  2010   103
 6  2005   101
 7  2014   100
 8  2016    98
 9  2011    96
10  2004    95
# ℹ 13 more rows
…
4. songs per artist top 50 (bar chart)

# Group by 'artist' and count the number of songs, then sort by 'song' count in descending order and select top 50
df_grouped <- df %>%
  group_by(artist) %>%
  summarise(song = n()) %>%
  arrange(desc(song)) %>%
  head(50)
df_grouped

# A tibble: 50 × 2
   artist          song
   <chr>          <int>
 1 Drake             23
 2 Rihanna           23
 3 Eminem            21
 4 Calvin Harris     20
 5 Britney Spears    19
 6 David Guetta      18
 7 Beyoncé           16
 8 Chris Brown       16
 9 Kanye West        16
10 Katy Perry        16
# ℹ 40 more rows
…
5. popularity vs songs, top 25 songs (line graph - connecting the points)

# A tibble: 25 × 2
   popularity song                
        <dbl> <chr>               
 1         89 Sweater Weather     
 2         88 Another Love        
 3         87 Without Me          
 4         86 The Real Slim Shady 
 5         86 Wait a Minute!      
 6         86 lovely (with Khalid)
 7         85 'Till I Collapse    
 8         85 Locked out of Heaven
 9         85 Daddy Issues        
10         85 The Nights          
# ℹ 15 more rows
…
